Make my life easy with R - 3 Dplyr
…
# which of the cyl-groups  contains the highest disp

top = mtcars %>%
  group_by(cyl) %>%
  summarise(m = max(disp)) %>%
  arrange(desc(m)) %>%
  ungroup() %>%
  mutate(top2 = if_else(row_number() == 1, T, F)) %>% 
  inner_join(
    ., mtcars, by=c("cyl")
  )
top

# A tibble: 32 × 14
     cyl     m top2    mpg  disp    hp  drat    wt  qsec    vs    am  gear  carb
   <dbl> <dbl> <lgl> <dbl> <dbl> <dbl> <dbl> <dbl> <dbl> <dbl> <dbl> <dbl> <dbl>
 1     8   472 TRUE   18.7  360    175  3.15  3.44  17.0     0     0     3     2
 2     8   472 TRUE   14.3  360    245  3.21  3.57  15.8     0     0     3     4
 3     8   472 TRUE   16.4  276.   180  3.07  4.07  17.4     0     0     3     3
 4     8   472 TRUE   17.3  276.   180  3.07  3.73  17.6     0     0     3     3
 5     8   472 TRUE   15.2  276.   180  3.07  3.78  18       0     0     3     3
 6     8   472 TRUE   10.4  472    205  2.93  5.25  18.0     0     0     3     4
 7     8   472 TRUE   10.4  460    215  3     5.42  17.8     0     0     3     4
 8     8   472 TRUE   14.7  440    230  3.23  5.34  17.4     0     0     3     4
 9     8   472 TRUE   15.5  318    150  2.76  3.52  16.9     0     0     3     2
10     8   472 TRUE   15.2  304    150  3.15  3.44  17.3     0     0     3     2
# ℹ 22 more rows
# ℹ 1 more variable: string <chr>
…
